…
``` r
mygenes_counts <- mutate(mygenes_counts, Group_f = factor(Group, levels = group_order))
```

Take a look at the data. As the table is quite wide we can use
`select()` to select just the columns we want to view.


``` r
select(mygenes_counts, gene_id, Group, Group_f)
```

``` output
# A tibble: 96 × 3
   gene_id            Group Group_f
   <chr>              <chr> <fct>  
 1 ENSMUSG00000000381 lvirg lvirg  
 2 ENSMUSG00000000381 lvirg lvirg  
 3 ENSMUSG00000000381 lpreg lpreg  
 4 ENSMUSG00000000381 lpreg lpreg  
 5 ENSMUSG00000000381 llact llact  
 6 ENSMUSG00000000381 llact llact  
 7 ENSMUSG00000000381 bvirg bvirg  
 8 ENSMUSG00000000381 bvirg bvirg  
 9 ENSMUSG00000000381 bpreg bpreg  
10 ENSMUSG00000000381 bpreg bpreg  
# ℹ 86 more rows
```
…
