Lesson Title: All in One View
…
Here we see the function c() for the first time. We use
this function extremely often in R when we have multiple items that we
are combining. We will see it again in this tutorial.

Let’s have a look at the data.

R

seqdata

OUTPUT

# A tibble: 284,820 × 4
   ...1               gene_symbol Sample     Count
   <chr>              <chr>       <chr>      <dbl>
 1 ENSMUSG00000000001 Gnai3       GSM1480291 243.
 2 ENSMUSG00000000001 Gnai3       GSM1480292 256.
 3 ENSMUSG00000000001 Gnai3       GSM1480293 240.
 4 ENSMUSG00000000001 Gnai3       GSM1480294 217.
 5 ENSMUSG00000000001 Gnai3       GSM1480295  84.7
 6 ENSMUSG00000000001 Gnai3       GSM1480296  84.6
 7 ENSMUSG00000000001 Gnai3       GSM1480297 175.
 8 ENSMUSG00000000001 Gnai3       GSM1480298 187.
 9 ENSMUSG00000000001 Gnai3       GSM1480299 177.
10 ENSMUSG00000000001 Gnai3       GSM1480300 169.
# ℹ 284,810 more rows
…
R

allinfo <- full_join(seqdata, sampleinfo, by = c("Sample" = "...1"))

Let’s have a look at the data.

R

allinfo

OUTPUT

# A tibble: 284,820 × 7
   ...1               gene_symbol Sample   Count characteristics immunophenotype
   <chr>              <chr>       <chr>    <dbl> <chr>           <chr>
 1 ENSMUSG00000000001 Gnai3       GSM1480… 243.  mammary gland,… luminal cell p…
 2 ENSMUSG00000000001 Gnai3       GSM1480… 256.  mammary gland,… luminal cell p…
 3 ENSMUSG00000000001 Gnai3       GSM1480… 240.  mammary gland,… luminal cell p…
 4 ENSMUSG00000000001 Gnai3       GSM1480… 217.  mammary gland,… luminal cell p…
 5 ENSMUSG00000000001 Gnai3       GSM1480…  84.7 mammary gland,… luminal cell p…
 6 ENSMUSG00000000001 Gnai3       GSM1480…  84.6 mammary gland,… luminal cell p…
 7 ENSMUSG00000000001 Gnai3       GSM1480… 175.  mammary gland,… basal cell pop…
 8 ENSMUSG00000000001 Gnai3       GSM1480… 187.  mammary gland,… basal cell pop…
 9 ENSMUSG00000000001 Gnai3       GSM1480… 177.  mammary gland,… basal cell pop…
10 ENSMUSG00000000001 Gnai3       GSM1480… 169.  mammary gland,… basal cell pop…
# ℹ 284,810 more rows
# ℹ 1 more variable: `developmental stage` <chr>
…
R

mygenes_counts <- mutate(mygenes_counts, Group_f = factor(Group, levels = group_order))

Take a look at the data. As the table is quite wide we can use
select() to select just the columns we want to view.

R

mygenes_counts %>% select(...1, Group, Group_f)

OUTPUT

# A tibble: 84 × 3
   ...1               Group Group_f
   <chr>              <chr> <fct>
 1 ENSMUSG00000000381 lvirg lvirg
 2 ENSMUSG00000000381 lvirg lvirg
 3 ENSMUSG00000000381 lpreg lpreg
 4 ENSMUSG00000000381 lpreg lpreg
 5 ENSMUSG00000000381 llact llact
 6 ENSMUSG00000000381 llact llact
 7 ENSMUSG00000000381 bvirg bvirg
 8 ENSMUSG00000000381 bvirg bvirg
 9 ENSMUSG00000000381 bpreg bpreg
10 ENSMUSG00000000381 bpreg bpreg
# ℹ 74 more rows
…
